{
    "request_info":{
        "success":true,
        "credits_used":1,
        "credits_remaining":99,
        "credits_used_this_request":1
        },
    "request_metadata":{
        "created_at":"2022-02-21T14:19:09.399Z",
        "processed_at":"2022-02-21T14:19:15.952Z",
        "total_time_taken":6.55,
        "amazon_url":"https://www.amazon.com/dp/B073JYC4XM?th=1&psc=1"
        },
    "request_parameters":{
        "type":"product",
        "domain":"negbuy.com",
        "Product_id":"1"
        },
    "product":{
        "title":"headphones",
        "search_alias":{
            "title":"Electronics",
            "value":"electronics"
        },
        "keywords":"SanDisk,128GB,Ultra,MicroSDXC,UHS-I,Memory,Card,with,Adapter,-,100MB/s,,C10,,U1,,Full,HD,,A1,,Micro,SD,Card,-,SDSQUAR-128G-GN6MA",
        "keywords_list":[
            "SanDisk",
            "128GB",
            "Ultra",
            "MicroSDXC",
            "UHS-I",
            "Memory",
            "Card",
            "with",
            "Adapter",
            "100MB/s",
            "Full",
            "Micro",
            "Card",
            "SDSQUAR-128G-GN6MA"
            ],
        "product_id":"1", 
        "brand":"sandisk",
        "variant_id_flat":"B073K14CVB,B07SC7BZHR,B07TV6Z24G,B07TS2ZTVH,B073JYVKNX,B073JWXGNT,B073JYC4XM,B084J4GNW7,B074RNRM2B,B089DPCJS1,B087JCL881,B073JY5T7T,B0758NHWS8,B07TYHXYN",
        "description":" SanDisk Ultra microSDXC and microSDHC cards are fast for better pictures, app performance, and Full HD video. Ideal for Android smartphones and tablets, these A1-rated cards load apps faster for a better smartphone experience. Available in capacities up to 400GB, you have the capacity to take more pictures and Full HD video and capture life at its fullest. Built to perform in harsh conditions, SanDisk Ultra microSD cards are waterproof, temperature proof, shockproof, and X-ray proof. The microSD card is also rated Class 10 for Full HD video recording performance and a 10-year limited warranty. 1GB=1,000,000,000 bytes. Actual user storage less. (For 64GB-256GB): Up to 100MB/s read speed; write speed lower. (For 16GB-32GB): Up to 98MB/s read speed; write speed lower. Based on internal testing; performance may be lower depending on host device, interface, usage conditions and other factors. 1MB=1,000,000 bytes. (1) Full HD (1920x1080) video support may vary based upon host device, file attributes, and other factors. (2) Card only. (3) Results may vary based on host device, app type and other factors. (4) Download and installation required. (5) Based on 4.1GB transfer of photos (Average file 3.5MB) with USB 3.0 reader. Results may vary based on host device, file attributes and other factors. 6) Approximations; Results and Full HD (1920x1080) video support may vary based on host device, file attributes and other factors.",
        "rating":4.7,
        "ratings_total":741166,
        "reviews_total":741166
        }
}